Program,Latest version,Download URL,Command name,Directory name,Check method,Version regex
AWS CLI,2.11.16,https://aws.amazon.com/cli/,aws,,--version,aws-cli/(\d+\.\d+\.\d+)
Azure CLI,2.48.1,https://learn.microsoft.com/en-us/cli/azure/install-azure-cli-linux?pivots=apt,az,,--version,azure-cli\s+(\d+\.\d+.\d+)
GNU Emacs,29.0.50,https://ftp.gnu.org/gnu/emacs/windows/,emacs,emacs/bin,--version,GNU Emacs (\d+\.\d+.\d+)
Git,2.40.1,https://git-scm.com/download/win,git,,--version,git version (\d+\.\d+\.\d+)
JQ,1.6,https://stedolan.github.io/jq/,jq,,--version,jq-(\d+\.\d+)
ripgrep,13.0.0,https://github.com/BurntSushi/ripgrep,rg,,--version,ripgrep (\d+\.\d+\.\d+)
ShellCheck,0.9.0,https://github.com/koalaman/shellcheck/releases,shellcheck,,--version,version: (\d+\.\d+\.\d+)
